﻿{
  "name": "Chelovek",
  "pckg": "model",
  "attrs": [
    {
      "name": "Name",
      "type": "string",
      "flexberryType": "nvarchar40",
      "notNull": false,
      "defaultValue": ""
    },
    {
      "name": "Age",
      "type": "int",
      "flexberryType": "int",
      "notNull": false,
      "defaultValue": ""
    }
  ],
  "belongsTo": [
    {
      "name": "kvartira",
      "relatedTo": "Kvartira",
      "inverse": "null"
    }
  ],
  "hasMany": []
}
